Arch.
All.
Avv.
Art.
Cav.
Artt.
Chiar.mo
Att.
Comm.
B.ca
Dott.
c/
Egr.
C.so
Gen.
ecc.
etc.
Gent.
Fatt.
Gent.mo
F.to
Geom.
F.lli
Ill.mo
f.co
Ing.
g.
Mons.
gg.
On.
L.
Lit.
Preg.mo
ns.
Prof.
n.
n°
Prof.ssa
pag.
Rag.
pagg.
Rev.
P.zza
Sen.
Prot.
Sig.ra
Racc.
Sig.
Rif.
Sigg.
seg.
Spett.
Spett.le
segg.
S.A.
Soc.
S.E.
Tel.
S.S.
V.le
Ten.
Vs.
Uff.
A.R.
o.d.g.
CAP
P.I.
Part.IVA
C.F.
Cod.Fisc.
p.c.
c/c
p.c.c.
c.a.
P.S.
c.m.
p.v.
c.a.
s.a.s.
d.f.
s.r.l.
f.m.
s.n.c.
IVA
S.p.A.
N.B.
u.s
